,params,score
67,"{'num_leaves': 31, 'learning_rate': 0.01, 'colsample_bytree': 0.7, 'subsample': 0.8, 'max_bin': 63}",0.732237780482
43,"{'num_leaves': 31, 'learning_rate': 0.03, 'colsample_bytree': 0.7, 'subsample': 0.8, 'max_bin': 127}",0.73322709888
42,"{'num_leaves': 31, 'learning_rate': 0.03, 'colsample_bytree': 0.7, 'subsample': 1, 'max_bin': 127}",0.733256889107
71,"{'num_leaves': 127, 'learning_rate': 0.01, 'colsample_bytree': 0.7, 'subsample': 0.8, 'max_bin': 63}",0.734871907216
47,"{'num_leaves': 127, 'learning_rate': 0.03, 'colsample_bytree': 0.7, 'subsample': 0.8, 'max_bin': 127}",0.735959633808
69,"{'num_leaves': 63, 'learning_rate': 0.01, 'colsample_bytree': 0.7, 'subsample': 0.8, 'max_bin': 63}",0.736347004033
37,"{'num_leaves': 31, 'learning_rate': 0.03, 'colsample_bytree': 0.7, 'subsample': 0.8, 'max_bin': 255}",0.737079978251
31,"{'num_leaves': 31, 'learning_rate': 0.01, 'colsample_bytree': 1, 'subsample': 0.8, 'max_bin': 63}",0.737219850578
13,"{'num_leaves': 31, 'learning_rate': 0.03, 'colsample_bytree': 1, 'subsample': 0.8, 'max_bin': 63}",0.737296270932
59,"{'num_leaves': 127, 'learning_rate': 0.01, 'colsample_bytree': 0.7, 'subsample': 0.8, 'max_bin': 255}",0.737508170264
66,"{'num_leaves': 31, 'learning_rate': 0.01, 'colsample_bytree': 0.7, 'subsample': 1, 'max_bin': 63}",0.737748519447
48,"{'num_leaves': 31, 'learning_rate': 0.03, 'colsample_bytree': 0.7, 'subsample': 1, 'max_bin': 63}",0.738144901838
19,"{'num_leaves': 31, 'learning_rate': 0.01, 'colsample_bytree': 1, 'subsample': 0.8, 'max_bin': 255}",0.738525703984
61,"{'num_leaves': 31, 'learning_rate': 0.01, 'colsample_bytree': 0.7, 'subsample': 0.8, 'max_bin': 127}",0.738588714821
63,"{'num_leaves': 63, 'learning_rate': 0.01, 'colsample_bytree': 0.7, 'subsample': 0.8, 'max_bin': 127}",0.738822249065
72,"{'num_leaves': 31, 'learning_rate': 0.03, 'colsample_bytree': 0.5, 'subsample': 1, 'max_bin': 255}",0.738850341688
39,"{'num_leaves': 63, 'learning_rate': 0.03, 'colsample_bytree': 0.7, 'subsample': 0.8, 'max_bin': 255}",0.739198060894
90,"{'num_leaves': 31, 'learning_rate': 0.01, 'colsample_bytree': 0.5, 'subsample': 1, 'max_bin': 255}",0.739766366746
57,"{'num_leaves': 63, 'learning_rate': 0.01, 'colsample_bytree': 0.7, 'subsample': 0.8, 'max_bin': 255}",0.739912847385
58,"{'num_leaves': 127, 'learning_rate': 0.01, 'colsample_bytree': 0.7, 'subsample': 1, 'max_bin': 255}",0.740161719787
54,"{'num_leaves': 31, 'learning_rate': 0.01, 'colsample_bytree': 0.7, 'subsample': 1, 'max_bin': 255}",0.740374445288
51,"{'num_leaves': 63, 'learning_rate': 0.03, 'colsample_bytree': 0.7, 'subsample': 0.8, 'max_bin': 63}",0.740722416088
60,"{'num_leaves': 31, 'learning_rate': 0.01, 'colsample_bytree': 0.7, 'subsample': 1, 'max_bin': 127}",0.740786184803
49,"{'num_leaves': 31, 'learning_rate': 0.03, 'colsample_bytree': 0.7, 'subsample': 0.8, 'max_bin': 63}",0.740875852308
62,"{'num_leaves': 63, 'learning_rate': 0.01, 'colsample_bytree': 0.7, 'subsample': 1, 'max_bin': 127}",0.74088971016
103,"{'num_leaves': 31, 'learning_rate': 0.01, 'colsample_bytree': 0.5, 'subsample': 0.8, 'max_bin': 63}",0.741060672191
25,"{'num_leaves': 31, 'learning_rate': 0.01, 'colsample_bytree': 1, 'subsample': 0.8, 'max_bin': 127}",0.741302234198
21,"{'num_leaves': 63, 'learning_rate': 0.01, 'colsample_bytree': 1, 'subsample': 0.8, 'max_bin': 255}",0.741934173266
91,"{'num_leaves': 31, 'learning_rate': 0.01, 'colsample_bytree': 0.5, 'subsample': 0.8, 'max_bin': 255}",0.742105914842
45,"{'num_leaves': 63, 'learning_rate': 0.03, 'colsample_bytree': 0.7, 'subsample': 0.8, 'max_bin': 127}",0.742131604193
101,"{'num_leaves': 127, 'learning_rate': 0.01, 'colsample_bytree': 0.5, 'subsample': 0.8, 'max_bin': 127}",0.742246625606
68,"{'num_leaves': 63, 'learning_rate': 0.01, 'colsample_bytree': 0.7, 'subsample': 1, 'max_bin': 63}",0.742771747029
79,"{'num_leaves': 31, 'learning_rate': 0.03, 'colsample_bytree': 0.5, 'subsample': 0.8, 'max_bin': 127}",0.742904669747
52,"{'num_leaves': 127, 'learning_rate': 0.03, 'colsample_bytree': 0.7, 'subsample': 1, 'max_bin': 63}",0.74297881917
97,"{'num_leaves': 31, 'learning_rate': 0.01, 'colsample_bytree': 0.5, 'subsample': 0.8, 'max_bin': 127}",0.743010263654
29,"{'num_leaves': 127, 'learning_rate': 0.01, 'colsample_bytree': 1, 'subsample': 0.8, 'max_bin': 127}",0.743411242514
92,"{'num_leaves': 63, 'learning_rate': 0.01, 'colsample_bytree': 0.5, 'subsample': 1, 'max_bin': 255}",0.74362878168
44,"{'num_leaves': 63, 'learning_rate': 0.03, 'colsample_bytree': 0.7, 'subsample': 1, 'max_bin': 127}",0.74367419646
65,"{'num_leaves': 127, 'learning_rate': 0.01, 'colsample_bytree': 0.7, 'subsample': 0.8, 'max_bin': 127}",0.74367602075
55,"{'num_leaves': 31, 'learning_rate': 0.01, 'colsample_bytree': 0.7, 'subsample': 0.8, 'max_bin': 255}",0.74376077586
102,"{'num_leaves': 31, 'learning_rate': 0.01, 'colsample_bytree': 0.5, 'subsample': 1, 'max_bin': 63}",0.743834821024
36,"{'num_leaves': 31, 'learning_rate': 0.03, 'colsample_bytree': 0.7, 'subsample': 1, 'max_bin': 255}",0.743864229758
84,"{'num_leaves': 31, 'learning_rate': 0.03, 'colsample_bytree': 0.5, 'subsample': 1, 'max_bin': 63}",0.743909332821
78,"{'num_leaves': 31, 'learning_rate': 0.03, 'colsample_bytree': 0.5, 'subsample': 1, 'max_bin': 127}",0.744114377696
41,"{'num_leaves': 127, 'learning_rate': 0.03, 'colsample_bytree': 0.7, 'subsample': 0.8, 'max_bin': 255}",0.744317771083
93,"{'num_leaves': 63, 'learning_rate': 0.01, 'colsample_bytree': 0.5, 'subsample': 0.8, 'max_bin': 255}",0.74505435462
94,"{'num_leaves': 127, 'learning_rate': 0.01, 'colsample_bytree': 0.5, 'subsample': 1, 'max_bin': 255}",0.745395736834
96,"{'num_leaves': 31, 'learning_rate': 0.01, 'colsample_bytree': 0.5, 'subsample': 1, 'max_bin': 127}",0.745880948611
107,"{'num_leaves': 127, 'learning_rate': 0.01, 'colsample_bytree': 0.5, 'subsample': 0.8, 'max_bin': 63}",0.746075977212
85,"{'num_leaves': 31, 'learning_rate': 0.03, 'colsample_bytree': 0.5, 'subsample': 0.8, 'max_bin': 63}",0.746304723354
35,"{'num_leaves': 127, 'learning_rate': 0.01, 'colsample_bytree': 1, 'subsample': 0.8, 'max_bin': 63}",0.74630759809
70,"{'num_leaves': 127, 'learning_rate': 0.01, 'colsample_bytree': 0.7, 'subsample': 1, 'max_bin': 63}",0.746715343889
30,"{'num_leaves': 31, 'learning_rate': 0.01, 'colsample_bytree': 1, 'subsample': 1, 'max_bin': 63}",0.747014953894
23,"{'num_leaves': 127, 'learning_rate': 0.01, 'colsample_bytree': 1, 'subsample': 0.8, 'max_bin': 255}",0.747153673232
46,"{'num_leaves': 127, 'learning_rate': 0.03, 'colsample_bytree': 0.7, 'subsample': 1, 'max_bin': 127}",0.74716601974
17,"{'num_leaves': 127, 'learning_rate': 0.03, 'colsample_bytree': 1, 'subsample': 0.8, 'max_bin': 63}",0.747274702233
73,"{'num_leaves': 31, 'learning_rate': 0.03, 'colsample_bytree': 0.5, 'subsample': 0.8, 'max_bin': 255}",0.747283415774
105,"{'num_leaves': 63, 'learning_rate': 0.01, 'colsample_bytree': 0.5, 'subsample': 0.8, 'max_bin': 63}",0.747398202049
53,"{'num_leaves': 127, 'learning_rate': 0.03, 'colsample_bytree': 0.7, 'subsample': 0.8, 'max_bin': 63}",0.747850277592
99,"{'num_leaves': 63, 'learning_rate': 0.01, 'colsample_bytree': 0.5, 'subsample': 0.8, 'max_bin': 127}",0.747946806261
98,"{'num_leaves': 63, 'learning_rate': 0.01, 'colsample_bytree': 0.5, 'subsample': 1, 'max_bin': 127}",0.74808575798
87,"{'num_leaves': 63, 'learning_rate': 0.03, 'colsample_bytree': 0.5, 'subsample': 0.8, 'max_bin': 63}",0.748475885986
64,"{'num_leaves': 127, 'learning_rate': 0.01, 'colsample_bytree': 0.7, 'subsample': 1, 'max_bin': 127}",0.748498857299
33,"{'num_leaves': 63, 'learning_rate': 0.01, 'colsample_bytree': 1, 'subsample': 0.8, 'max_bin': 63}",0.749194355573
50,"{'num_leaves': 63, 'learning_rate': 0.03, 'colsample_bytree': 0.7, 'subsample': 1, 'max_bin': 63}",0.749452023616
11,"{'num_leaves': 127, 'learning_rate': 0.03, 'colsample_bytree': 1, 'subsample': 0.8, 'max_bin': 127}",0.749490612842
38,"{'num_leaves': 63, 'learning_rate': 0.03, 'colsample_bytree': 0.7, 'subsample': 1, 'max_bin': 255}",0.749926502285
83,"{'num_leaves': 127, 'learning_rate': 0.03, 'colsample_bytree': 0.5, 'subsample': 0.8, 'max_bin': 127}",0.751081086554
88,"{'num_leaves': 127, 'learning_rate': 0.03, 'colsample_bytree': 0.5, 'subsample': 1, 'max_bin': 63}",0.751179585142
56,"{'num_leaves': 63, 'learning_rate': 0.01, 'colsample_bytree': 0.7, 'subsample': 1, 'max_bin': 255}",0.751373446784
106,"{'num_leaves': 127, 'learning_rate': 0.01, 'colsample_bytree': 0.5, 'subsample': 1, 'max_bin': 63}",0.751521087869
95,"{'num_leaves': 127, 'learning_rate': 0.01, 'colsample_bytree': 0.5, 'subsample': 0.8, 'max_bin': 255}",0.751911861154
6,"{'num_leaves': 31, 'learning_rate': 0.03, 'colsample_bytree': 1, 'subsample': 1, 'max_bin': 127}",0.752122551757
1,"{'num_leaves': 31, 'learning_rate': 0.03, 'colsample_bytree': 1, 'subsample': 0.8, 'max_bin': 255}",0.752164770699
74,"{'num_leaves': 63, 'learning_rate': 0.03, 'colsample_bytree': 0.5, 'subsample': 1, 'max_bin': 255}",0.752168486706
27,"{'num_leaves': 63, 'learning_rate': 0.01, 'colsample_bytree': 1, 'subsample': 0.8, 'max_bin': 127}",0.752311597975
9,"{'num_leaves': 63, 'learning_rate': 0.03, 'colsample_bytree': 1, 'subsample': 0.8, 'max_bin': 127}",0.753414772011
89,"{'num_leaves': 127, 'learning_rate': 0.03, 'colsample_bytree': 0.5, 'subsample': 0.8, 'max_bin': 63}",0.75370120729
82,"{'num_leaves': 127, 'learning_rate': 0.03, 'colsample_bytree': 0.5, 'subsample': 1, 'max_bin': 127}",0.753778963764
3,"{'num_leaves': 63, 'learning_rate': 0.03, 'colsample_bytree': 1, 'subsample': 0.8, 'max_bin': 255}",0.753978825404
24,"{'num_leaves': 31, 'learning_rate': 0.01, 'colsample_bytree': 1, 'subsample': 1, 'max_bin': 127}",0.754862550855
104,"{'num_leaves': 63, 'learning_rate': 0.01, 'colsample_bytree': 0.5, 'subsample': 1, 'max_bin': 63}",0.75503674255
80,"{'num_leaves': 63, 'learning_rate': 0.03, 'colsample_bytree': 0.5, 'subsample': 1, 'max_bin': 127}",0.755103018534
34,"{'num_leaves': 127, 'learning_rate': 0.01, 'colsample_bytree': 1, 'subsample': 1, 'max_bin': 63}",0.755116546957
26,"{'num_leaves': 63, 'learning_rate': 0.01, 'colsample_bytree': 1, 'subsample': 1, 'max_bin': 127}",0.755209301097
18,"{'num_leaves': 31, 'learning_rate': 0.01, 'colsample_bytree': 1, 'subsample': 1, 'max_bin': 255}",0.755223194827
76,"{'num_leaves': 127, 'learning_rate': 0.03, 'colsample_bytree': 0.5, 'subsample': 1, 'max_bin': 255}",0.755600819856
75,"{'num_leaves': 63, 'learning_rate': 0.03, 'colsample_bytree': 0.5, 'subsample': 0.8, 'max_bin': 255}",0.755629345912
40,"{'num_leaves': 127, 'learning_rate': 0.03, 'colsample_bytree': 0.7, 'subsample': 1, 'max_bin': 255}",0.755857731622
7,"{'num_leaves': 31, 'learning_rate': 0.03, 'colsample_bytree': 1, 'subsample': 0.8, 'max_bin': 127}",0.756659036033
15,"{'num_leaves': 63, 'learning_rate': 0.03, 'colsample_bytree': 1, 'subsample': 0.8, 'max_bin': 63}",0.75684667948
100,"{'num_leaves': 127, 'learning_rate': 0.01, 'colsample_bytree': 0.5, 'subsample': 1, 'max_bin': 127}",0.756856998536
0,"{'num_leaves': 31, 'learning_rate': 0.03, 'colsample_bytree': 1, 'subsample': 1, 'max_bin': 255}",0.758539793249
5,"{'num_leaves': 127, 'learning_rate': 0.03, 'colsample_bytree': 1, 'subsample': 0.8, 'max_bin': 255}",0.758553962277
81,"{'num_leaves': 63, 'learning_rate': 0.03, 'colsample_bytree': 0.5, 'subsample': 0.8, 'max_bin': 127}",0.759108996664
77,"{'num_leaves': 127, 'learning_rate': 0.03, 'colsample_bytree': 0.5, 'subsample': 0.8, 'max_bin': 255}",0.760208055628
86,"{'num_leaves': 63, 'learning_rate': 0.03, 'colsample_bytree': 0.5, 'subsample': 1, 'max_bin': 63}",0.760755713258
32,"{'num_leaves': 63, 'learning_rate': 0.01, 'colsample_bytree': 1, 'subsample': 1, 'max_bin': 63}",0.760771613266
12,"{'num_leaves': 31, 'learning_rate': 0.03, 'colsample_bytree': 1, 'subsample': 1, 'max_bin': 63}",0.760848402884
2,"{'num_leaves': 63, 'learning_rate': 0.03, 'colsample_bytree': 1, 'subsample': 1, 'max_bin': 255}",0.761011252182
10,"{'num_leaves': 127, 'learning_rate': 0.03, 'colsample_bytree': 1, 'subsample': 1, 'max_bin': 127}",0.761699868058
20,"{'num_leaves': 63, 'learning_rate': 0.01, 'colsample_bytree': 1, 'subsample': 1, 'max_bin': 255}",0.76196160764
28,"{'num_leaves': 127, 'learning_rate': 0.01, 'colsample_bytree': 1, 'subsample': 1, 'max_bin': 127}",0.762980491015
4,"{'num_leaves': 127, 'learning_rate': 0.03, 'colsample_bytree': 1, 'subsample': 1, 'max_bin': 255}",0.763346017446
8,"{'num_leaves': 63, 'learning_rate': 0.03, 'colsample_bytree': 1, 'subsample': 1, 'max_bin': 127}",0.763709462774
14,"{'num_leaves': 63, 'learning_rate': 0.03, 'colsample_bytree': 1, 'subsample': 1, 'max_bin': 63}",0.764858862139
22,"{'num_leaves': 127, 'learning_rate': 0.01, 'colsample_bytree': 1, 'subsample': 1, 'max_bin': 255}",0.767405214997
16,"{'num_leaves': 127, 'learning_rate': 0.03, 'colsample_bytree': 1, 'subsample': 1, 'max_bin': 63}",0.773860577092
