,params,score
63,"{'subsample': 0.8, 'learning_rate': 0.01, 'colsample_bytree': 0.5, 'max_depth': 4, 'min_child_weight': 2}",0.715218863291
51,"{'subsample': 0.8, 'learning_rate': 0.03, 'colsample_bytree': 0.5, 'max_depth': 4, 'min_child_weight': 2}",0.71818559735
49,"{'subsample': 0.8, 'learning_rate': 0.03, 'colsample_bytree': 0.5, 'max_depth': 4, 'min_child_weight': 1}",0.719322040631
24,"{'subsample': 1, 'learning_rate': 0.03, 'colsample_bytree': 0.7, 'max_depth': 4, 'min_child_weight': 1}",0.720011948448
52,"{'subsample': 1, 'learning_rate': 0.03, 'colsample_bytree': 0.5, 'max_depth': 6, 'min_child_weight': 1}",0.721938653013
26,"{'subsample': 1, 'learning_rate': 0.03, 'colsample_bytree': 0.7, 'max_depth': 4, 'min_child_weight': 2}",0.721970807596
43,"{'subsample': 0.8, 'learning_rate': 0.01, 'colsample_bytree': 0.7, 'max_depth': 6, 'min_child_weight': 2}",0.722170154799
64,"{'subsample': 1, 'learning_rate': 0.01, 'colsample_bytree': 0.5, 'max_depth': 6, 'min_child_weight': 1}",0.722624631408
62,"{'subsample': 1, 'learning_rate': 0.01, 'colsample_bytree': 0.5, 'max_depth': 4, 'min_child_weight': 2}",0.723324098009
50,"{'subsample': 1, 'learning_rate': 0.03, 'colsample_bytree': 0.5, 'max_depth': 4, 'min_child_weight': 2}",0.723700084787
66,"{'subsample': 1, 'learning_rate': 0.01, 'colsample_bytree': 0.5, 'max_depth': 6, 'min_child_weight': 2}",0.723952887584
25,"{'subsample': 0.8, 'learning_rate': 0.03, 'colsample_bytree': 0.7, 'max_depth': 4, 'min_child_weight': 1}",0.723970832592
67,"{'subsample': 0.8, 'learning_rate': 0.01, 'colsample_bytree': 0.5, 'max_depth': 6, 'min_child_weight': 2}",0.72397933336
1,"{'subsample': 0.8, 'learning_rate': 0.03, 'colsample_bytree': 1, 'max_depth': 4, 'min_child_weight': 1}",0.723989164396
13,"{'subsample': 0.8, 'learning_rate': 0.01, 'colsample_bytree': 1, 'max_depth': 4, 'min_child_weight': 1}",0.72427721726
41,"{'subsample': 0.8, 'learning_rate': 0.01, 'colsample_bytree': 0.7, 'max_depth': 6, 'min_child_weight': 1}",0.724448373755
3,"{'subsample': 0.8, 'learning_rate': 0.03, 'colsample_bytree': 1, 'max_depth': 4, 'min_child_weight': 2}",0.72445726374
37,"{'subsample': 0.8, 'learning_rate': 0.01, 'colsample_bytree': 0.7, 'max_depth': 4, 'min_child_weight': 1}",0.724636959176
61,"{'subsample': 0.8, 'learning_rate': 0.01, 'colsample_bytree': 0.5, 'max_depth': 4, 'min_child_weight': 1}",0.724756272633
38,"{'subsample': 1, 'learning_rate': 0.01, 'colsample_bytree': 0.7, 'max_depth': 4, 'min_child_weight': 2}",0.725427703817
60,"{'subsample': 1, 'learning_rate': 0.01, 'colsample_bytree': 0.5, 'max_depth': 4, 'min_child_weight': 1}",0.725446943703
36,"{'subsample': 1, 'learning_rate': 0.01, 'colsample_bytree': 0.7, 'max_depth': 4, 'min_child_weight': 1}",0.725476410396
48,"{'subsample': 1, 'learning_rate': 0.03, 'colsample_bytree': 0.5, 'max_depth': 4, 'min_child_weight': 1}",0.726323426656
54,"{'subsample': 1, 'learning_rate': 0.03, 'colsample_bytree': 0.5, 'max_depth': 6, 'min_child_weight': 2}",0.72653290326
55,"{'subsample': 0.8, 'learning_rate': 0.03, 'colsample_bytree': 0.5, 'max_depth': 6, 'min_child_weight': 2}",0.726608472889
30,"{'subsample': 1, 'learning_rate': 0.03, 'colsample_bytree': 0.7, 'max_depth': 6, 'min_child_weight': 2}",0.726679257434
65,"{'subsample': 0.8, 'learning_rate': 0.01, 'colsample_bytree': 0.5, 'max_depth': 6, 'min_child_weight': 1}",0.727102274893
28,"{'subsample': 1, 'learning_rate': 0.03, 'colsample_bytree': 0.7, 'max_depth': 6, 'min_child_weight': 1}",0.727599518771
53,"{'subsample': 0.8, 'learning_rate': 0.03, 'colsample_bytree': 0.5, 'max_depth': 6, 'min_child_weight': 1}",0.727655320982
39,"{'subsample': 0.8, 'learning_rate': 0.01, 'colsample_bytree': 0.7, 'max_depth': 4, 'min_child_weight': 2}",0.727711245616
31,"{'subsample': 0.8, 'learning_rate': 0.03, 'colsample_bytree': 0.7, 'max_depth': 6, 'min_child_weight': 2}",0.727716131868
42,"{'subsample': 1, 'learning_rate': 0.01, 'colsample_bytree': 0.7, 'max_depth': 6, 'min_child_weight': 2}",0.727954260665
27,"{'subsample': 0.8, 'learning_rate': 0.03, 'colsample_bytree': 0.7, 'max_depth': 4, 'min_child_weight': 2}",0.728238837771
59,"{'subsample': 0.8, 'learning_rate': 0.03, 'colsample_bytree': 0.5, 'max_depth': 8, 'min_child_weight': 2}",0.728707088998
14,"{'subsample': 1, 'learning_rate': 0.01, 'colsample_bytree': 1, 'max_depth': 4, 'min_child_weight': 2}",0.728858279983
40,"{'subsample': 1, 'learning_rate': 0.01, 'colsample_bytree': 0.7, 'max_depth': 6, 'min_child_weight': 1}",0.729215762137
2,"{'subsample': 1, 'learning_rate': 0.03, 'colsample_bytree': 1, 'max_depth': 4, 'min_child_weight': 2}",0.72967099415
58,"{'subsample': 1, 'learning_rate': 0.03, 'colsample_bytree': 0.5, 'max_depth': 8, 'min_child_weight': 2}",0.729799503013
12,"{'subsample': 1, 'learning_rate': 0.01, 'colsample_bytree': 1, 'max_depth': 4, 'min_child_weight': 1}",0.7302458865
29,"{'subsample': 0.8, 'learning_rate': 0.03, 'colsample_bytree': 0.7, 'max_depth': 6, 'min_child_weight': 1}",0.730377210523
15,"{'subsample': 0.8, 'learning_rate': 0.01, 'colsample_bytree': 1, 'max_depth': 4, 'min_child_weight': 2}",0.730829380378
17,"{'subsample': 0.8, 'learning_rate': 0.01, 'colsample_bytree': 1, 'max_depth': 6, 'min_child_weight': 1}",0.730918689856
57,"{'subsample': 0.8, 'learning_rate': 0.03, 'colsample_bytree': 0.5, 'max_depth': 8, 'min_child_weight': 1}",0.731253193645
7,"{'subsample': 0.8, 'learning_rate': 0.03, 'colsample_bytree': 1, 'max_depth': 6, 'min_child_weight': 2}",0.731622345025
35,"{'subsample': 0.8, 'learning_rate': 0.03, 'colsample_bytree': 0.7, 'max_depth': 8, 'min_child_weight': 2}",0.732826328619
47,"{'subsample': 0.8, 'learning_rate': 0.01, 'colsample_bytree': 0.7, 'max_depth': 8, 'min_child_weight': 2}",0.733539501218
19,"{'subsample': 0.8, 'learning_rate': 0.01, 'colsample_bytree': 1, 'max_depth': 6, 'min_child_weight': 2}",0.734854044716
0,"{'subsample': 1, 'learning_rate': 0.03, 'colsample_bytree': 1, 'max_depth': 4, 'min_child_weight': 1}",0.735236663253
6,"{'subsample': 1, 'learning_rate': 0.03, 'colsample_bytree': 1, 'max_depth': 6, 'min_child_weight': 2}",0.735650992291
44,"{'subsample': 1, 'learning_rate': 0.01, 'colsample_bytree': 0.7, 'max_depth': 8, 'min_child_weight': 1}",0.736011422909
5,"{'subsample': 0.8, 'learning_rate': 0.03, 'colsample_bytree': 1, 'max_depth': 6, 'min_child_weight': 1}",0.736213392271
34,"{'subsample': 1, 'learning_rate': 0.03, 'colsample_bytree': 0.7, 'max_depth': 8, 'min_child_weight': 2}",0.73655667022
45,"{'subsample': 0.8, 'learning_rate': 0.01, 'colsample_bytree': 0.7, 'max_depth': 8, 'min_child_weight': 1}",0.736587084768
71,"{'subsample': 0.8, 'learning_rate': 0.01, 'colsample_bytree': 0.5, 'max_depth': 8, 'min_child_weight': 2}",0.736955884309
56,"{'subsample': 1, 'learning_rate': 0.03, 'colsample_bytree': 0.5, 'max_depth': 8, 'min_child_weight': 1}",0.738451545654
46,"{'subsample': 1, 'learning_rate': 0.01, 'colsample_bytree': 0.7, 'max_depth': 8, 'min_child_weight': 2}",0.738941200772
68,"{'subsample': 1, 'learning_rate': 0.01, 'colsample_bytree': 0.5, 'max_depth': 8, 'min_child_weight': 1}",0.73912174862
23,"{'subsample': 0.8, 'learning_rate': 0.01, 'colsample_bytree': 1, 'max_depth': 8, 'min_child_weight': 2}",0.739418285791
11,"{'subsample': 0.8, 'learning_rate': 0.03, 'colsample_bytree': 1, 'max_depth': 8, 'min_child_weight': 2}",0.739806041265
18,"{'subsample': 1, 'learning_rate': 0.01, 'colsample_bytree': 1, 'max_depth': 6, 'min_child_weight': 2}",0.739864010338
70,"{'subsample': 1, 'learning_rate': 0.01, 'colsample_bytree': 0.5, 'max_depth': 8, 'min_child_weight': 2}",0.741178370811
21,"{'subsample': 0.8, 'learning_rate': 0.01, 'colsample_bytree': 1, 'max_depth': 8, 'min_child_weight': 1}",0.742327767273
69,"{'subsample': 0.8, 'learning_rate': 0.01, 'colsample_bytree': 0.5, 'max_depth': 8, 'min_child_weight': 1}",0.742329320729
16,"{'subsample': 1, 'learning_rate': 0.01, 'colsample_bytree': 1, 'max_depth': 6, 'min_child_weight': 1}",0.742572372419
4,"{'subsample': 1, 'learning_rate': 0.03, 'colsample_bytree': 1, 'max_depth': 6, 'min_child_weight': 1}",0.744289619029
32,"{'subsample': 1, 'learning_rate': 0.03, 'colsample_bytree': 0.7, 'max_depth': 8, 'min_child_weight': 1}",0.744696727256
33,"{'subsample': 0.8, 'learning_rate': 0.03, 'colsample_bytree': 0.7, 'max_depth': 8, 'min_child_weight': 1}",0.745192262422
10,"{'subsample': 1, 'learning_rate': 0.03, 'colsample_bytree': 1, 'max_depth': 8, 'min_child_weight': 2}",0.748370720804
9,"{'subsample': 0.8, 'learning_rate': 0.03, 'colsample_bytree': 1, 'max_depth': 8, 'min_child_weight': 1}",0.749403413149
22,"{'subsample': 1, 'learning_rate': 0.01, 'colsample_bytree': 1, 'max_depth': 8, 'min_child_weight': 2}",0.750946081949
8,"{'subsample': 1, 'learning_rate': 0.03, 'colsample_bytree': 1, 'max_depth': 8, 'min_child_weight': 1}",0.756676807692
20,"{'subsample': 1, 'learning_rate': 0.01, 'colsample_bytree': 1, 'max_depth': 8, 'min_child_weight': 1}",0.757641462727
