136978	base likelihood expression combine follow	0.64944
197698	cell fix use	0.00010
205040	cell seed density 105 free	1.09363
227680	clinically approve	0.54676
234021	collagen coat well	0.00010
342987	dna sample derive normal tissue	0.12039
344389	domain activate prosurvival proliferation pathway	0.59572
434854	figure datum	0.21473
469139	g418 800	0.00010
469140	g418 approximately	0.00010
469147	g418 cell 000 000 plat	0.00010
469182	g418 presence cell lysate prepared	0.58022
864058	presence dasatinib	0.58022
1000680	seed density 106 free medium	0.59126
1001770	select g418 invitrogen	0.58022
