53036	activate mutation suggest	0.00112
119979	assay restrict function brca1 protein	0.01664
171055	calculate individualized background mutation rate	0.00003
182052	carrier unexpected extended multifactorial likelihood	0.00674
188700	cause heretofore uncertain variant	0.04230
229414	close collaboration enigma	-0.05714
233986	collaboration enigma	-0.05714
271400	cooccurr l755w patient tcga a0t6	0.11985
275034	correlation variant nh2 terminal palb2	0.61302
294005	database http p53 iarc relational	0.26080
294006	database http research	0.26080
294007	database http research nhgri	0.26080
295873	datum familial	0.00437
295990	datum frequency unclassified variant case	0.43753
379995	enigma	-0.05332
483247	genetic datum finding significant implication	0.12158
502137	guy tower guy hospital thomas	0.00597
512033	heretofore uncertain variant	0.04230
537608	idh1 allele correlate know activate	0.00004
551799	include nucleotide context mutability gene	0.00048
628380	level close collaboration enigma	-0.05714
706196	multifactorial classification variant seven nonpathogenic	0.00026
806815	pathogenicity variant use modified multifactorial	0.00010
1142790	treatment western blot	0.34187
1166464	uncertain variant	0.04230
1169659	unique biochemical property r337h mutation	0.01287
1192057	variant migrate marginally ahead wild	0.04230
1194420	variant unaffected individual mother diagnose	0.03275
1204296	vulvar	0.00587
